<svg xmlns="http://www.w3.org/2000/svg" width="1925" height="588" viewBox="0 0 1925 588">
  <g fill="none" fill-rule="evenodd" transform="translate(-1718)">
    <rect width="1925" height="596" x="1717.83" fill="#08B8CC" opacity=".111"/>
    <circle cx="2305" cy="2308" r="1842" fill="#FFFFFF" opacity=".307"/>
    <circle cx="1842" cy="2254" r="1842" fill="#FFFFFF" opacity=".289"/>
    <path fill="#FFFFFF" d="M3642.82981,588 L3642.82981,520.910282 C2982,520.910282 2259.96678,540.356478 1717.82981,588 L3642.82981,588 Z"/>
  </g>
</svg>
