<svg xmlns="http://www.w3.org/2000/svg" width="183" height="69" viewBox="0 0 183 69">
  <defs>
    <linearGradient id="a" x1="106.647%" x2="-79.528%" y1="52.278%" y2="45.462%">
      <stop offset="0%" stop-color="#00ACC1"/>
      <stop offset="99.93%" stop-color="#009688"/>
    </linearGradient>
    <linearGradient id="b" x1="85.509%" x2="2.828%" y1="63.895%" y2="36.069%">
      <stop offset="0%" stop-color="#00ACC1"/>
      <stop offset="99.93%" stop-color="#009688"/>
    </linearGradient>
    <linearGradient id="c" x1="67.537%" x2="40.696%" y1="131.538%" y2="-13.39%">
      <stop offset="0%" stop-color="#00ACC1"/>
      <stop offset="99.93%" stop-color="#009688"/>
    </linearGradient>
    <linearGradient id="d" x1="17.296%" x2="112.931%" y1="58.489%" y2="37.804%">
      <stop offset="0%" stop-color="#00ACC1"/>
      <stop offset="59.51%" stop-color="#009688"/>
      <stop offset="98.09%" stop-color="#009688"/>
    </linearGradient>
  </defs>
  <g fill="none" fill-rule="evenodd" transform="translate(0 .627)">
    <path fill="url(#a)" fill-rule="nonzero" d="M32.592076,36.0151049 C32.7076508,36.8257343 32.6498634,37.5784615 32.4765013,38.2153846 C32.2453518,38.8523077 31.956415,39.4313287 31.5519034,39.8945455 C31.1473918,40.3577622 30.7428802,40.7051748 30.2227939,40.9946853 C29.760495,41.2262937 29.298196,41.4 28.9514718,41.4 C28.662535,41.4 28.2580234,41.3420979 27.7957244,41.1683916 C27.2756381,40.9946853 26.8133392,40.7630769 26.2932528,40.5314685 C25.8309539,40.2998601 25.4264423,40.0103497 25.0797181,39.6629371 C24.7907812,39.3734266 24.6174191,39.1418182 24.5596318,38.9102098 C24.6174191,38.7944056 24.7329939,38.6206993 24.8485686,38.5048951 C25.0219307,38.3311888 25.1952928,38.1574825 25.4264423,37.9258741 C25.6575918,37.6942657 25.8887413,37.4626573 26.1776781,37.1731469 C26.4666149,36.8836364 26.7555518,36.4783217 26.9867013,36.0151049 L27.0444886,35.8993007 L26.9867013,35.7834965 C26.8711265,35.2623776 26.4666149,34.7991608 25.8309539,34.3359441 C25.1952928,33.8727273 24.2129076,33.6411189 22.9993728,33.6411189 C22.4792865,33.6411189 21.9592002,33.699021 21.4391139,33.8727273 C20.9190275,34.0464336 20.514516,34.2201399 20.1100044,34.5096503 C19.7054928,34.7991608 19.4165559,35.1465734 19.2431938,35.5518881 C19.0120444,35.9572028 18.954257,36.4204196 19.0120444,36.9415385 C19.1276191,37.7521678 19.5899181,38.6786014 20.2833665,39.7208392 C20.9768149,40.7630769 22.1325623,42.1527273 23.6928212,43.8897902 C25.7731665,46.147972 27.4490002,48.0587413 28.7203223,49.68 C29.9338571,51.2433566 30.6850929,52.7488112 30.9162424,54.1963636 C31.1473918,55.8755245 31.0318171,57.4967832 30.5695181,59.0601399 C30.1072192,60.5655944 29.2404087,61.9552448 28.0268739,63.1132867 C26.8133392,64.2713287 25.1375055,65.1977622 23.1149476,65.9504895 C21.0923896,66.6453147 18.6075328,66.9927273 15.7759517,66.9927273 C13.5800317,66.9927273 11.4996864,66.7032168 9.76606534,66.1241958 C7.97465691,65.5451748 6.41439795,64.7924476 5.14307583,63.866014 C3.87175372,62.9395804 2.77379371,61.8394406 2.02255791,60.6813986 C1.21353475,59.4654545 0.751235795,58.2495105 0.577873689,56.9177622 C0.404511582,55.8755245 0.462298951,54.8332867 0.751235795,53.7331469 C1.04017264,52.6909091 1.50247159,51.7065734 2.13813265,50.838042 C2.77379371,49.9695105 3.58281687,49.2167832 4.56520214,48.6377622 C5.54758741,48.0587413 6.70333479,47.6534266 7.97465691,47.5376224 C8.26359375,47.4797203 8.55253059,47.4797203 8.89925481,47.4797203 C8.95704218,47.4797203 9.07261691,47.4797203 9.13040428,47.4797203 C9.59270323,47.4797203 10.0550022,47.5376224 10.4595138,47.5955245 C11.1529622,47.7692308 11.7886233,48.0008392 12.4242843,48.4061538 C13.002158,48.7535664 13.2910948,49.2746853 13.4066696,49.9695105 C13.4644569,50.4906294 13.3488822,50.7801399 12.8865833,50.9538462 C12.3664969,51.1854545 11.7308359,51.3591608 11.0373875,51.474965 C10.343939,51.5907692 9.59270323,51.7644755 8.95704218,51.9381818 C8.26359375,52.1697902 7.62793269,52.5172028 7.10784637,52.8646154 C6.58776005,53.2699301 6.18324847,53.791049 5.89431163,54.3700699 C5.60537478,54.9490909 5.48980004,55.6439161 5.60537478,56.4545455 C5.72094952,57.4388811 6.1254611,58.3653147 6.81890953,59.1759441 C7.45457059,59.9865734 8.26359375,60.7393007 9.24597902,61.3762238 C10.2283643,62.0131469 11.3263243,62.5342657 12.539859,62.8816783 C13.7533938,63.2290909 15.0247159,63.4027972 16.2382507,63.4027972 C17.2784233,63.4027972 18.2608086,63.2290909 19.1854065,62.9395804 C20.1100044,62.6500699 20.8612402,62.2447552 21.5546886,61.7236364 C22.248137,61.2025175 22.7682233,60.5076923 23.1149476,59.754965 C23.4616718,59.0022378 23.6350339,58.1337063 23.6350339,57.2072727 C23.6350339,56.5703497 23.5772465,55.8755245 23.4038844,55.1227972 C23.1149476,54.1384615 22.710436,53.212028 22.1325623,52.3434965 C21.612476,51.474965 20.9768149,50.6643357 20.2833665,49.8537063 C19.5899181,49.100979 18.8964696,48.2903497 18.2030212,47.4797203 C17.5095728,46.6690909 16.8161243,45.8584615 16.1804633,45.0478322 C15.5448022,44.2372028 14.9669285,43.3107692 14.5046296,42.3843357 C14.0423306,41.4579021 13.6956064,40.4156643 13.5800317,39.3155245 C13.3488822,38.0995804 13.4066696,36.9415385 13.6956064,35.8413986 C13.9845433,34.7991608 14.5046296,33.8148252 15.2558654,33.0041958 C16.0071012,32.1935664 16.9894865,31.5566434 18.1452338,31.0355245 C19.3587686,30.5144056 20.7456654,30.2248951 22.3637118,30.166993 C22.9415854,30.1090909 23.4616718,30.1090909 24.0395455,30.1090909 C24.6174191,30.1090909 25.1375055,30.166993 25.6575918,30.2248951 C27.6801497,30.5144056 29.298196,31.1513287 30.5117308,32.1935664 C31.6096908,33.2937063 32.3609266,34.5675524 32.592076,36.0151049 Z M110.084938,37.9837762 L110.2583,37.5205594 C110.316087,37.4047552 110.316087,37.3468531 110.373875,37.231049 C110.951748,35.7834965 111.587409,34.5096503 112.280858,33.5253147 C112.974306,32.5988811 113.667755,31.961958 114.476778,31.7882517 C115.343588,31.7882517 116.268186,32.0777622 117.134997,32.5988811 C117.655083,32.8304895 118.175169,33.1779021 118.637468,33.6411189 C119.099767,34.0464336 119.330917,34.5096503 119.388704,35.0307692 C119.446491,35.3202797 119.446491,35.5518881 119.330917,35.7834965 C119.273129,36.0151049 119.099767,36.3046154 118.81083,36.5941259 C118.348531,37.0573427 117.886233,37.7521678 117.481721,38.5048951 C117.019422,39.2576224 116.61491,40.1840559 116.210399,41.1104895 C115.805887,42.0948252 115.401376,43.1370629 114.996864,44.2951049 C114.592352,45.4531469 114.245628,46.6111888 113.898904,47.7113287 L113.667755,48.5798601 L114.361203,47.9429371 C115.401376,46.9586014 116.441548,46.2637762 117.481721,45.8005594 C118.521894,45.3373427 119.388704,45.1057343 120.197727,45.1057343 C121.2379,45.1057343 122.162498,45.3373427 122.913734,45.8005594 C123.607182,46.2637762 124.069481,46.9006993 124.185056,47.7113287 C124.30063,48.521958 124.185056,49.3904895 123.896119,50.4327273 C123.607182,51.474965 123.20267,52.5172028 122.740372,53.6173427 C122.278073,54.7174825 121.873561,55.7597203 121.526837,56.7440559 C121.122325,57.7862937 121.00675,58.6548252 121.064538,59.3496503 C121.064538,59.6391608 121.122325,59.8707692 121.180113,60.1023776 C121.2379,60.2760839 121.469049,60.5076923 121.931348,60.5076923 C122.509222,60.5076923 123.260458,60.1602797 124.242843,59.5233566 C125.225228,58.8864336 126.149826,58.0179021 127.016637,56.8598601 C127.247786,56.5703497 127.536723,56.2808392 127.82566,55.9913287 C128.172384,55.6439161 128.230172,55.6439161 128.230172,55.586014 C128.519108,55.586014 128.808045,55.6439161 129.096982,55.8176224 C129.212557,55.8755245 129.443706,55.9913287 129.443706,56.6282517 C129.443706,57.2072727 129.096982,57.96 128.461321,58.8864336 C127.767873,59.8128671 126.901062,60.6813986 125.918677,61.492028 C124.936292,62.3026573 123.838332,63.0553846 122.624797,63.6344056 C121.469049,64.2134266 120.371089,64.5029371 119.330917,64.5029371 C118.232957,64.5029371 117.308359,64.3292308 116.730485,63.9239161 C116.152611,63.5765035 115.690312,63.0553846 115.459163,62.4763636 C115.228014,61.8394406 115.112439,61.0867133 115.170226,60.2760839 C115.228014,59.4654545 115.401376,58.539021 115.690312,57.6704895 C115.863675,57.0335664 116.094824,56.3387413 116.325974,55.6439161 C116.557123,54.9490909 116.84606,54.2542657 117.019422,53.6752448 C117.250571,53.0383217 117.423934,52.4593007 117.597296,51.9381818 C117.770658,51.4170629 117.828445,50.9538462 117.770658,50.6643357 C117.71287,50.3748252 117.655083,50.1432168 117.481721,50.0274126 C117.308359,49.8537063 117.019422,49.7379021 116.61491,49.7379021 C115.805887,49.7379021 115.112439,50.2011189 114.476778,51.0696503 C114.245628,51.4170629 113.956691,51.8223776 113.667755,52.2276923 C113.378818,52.6909091 113.089881,53.3278322 112.743157,54.1963636 C112.45422,55.006993 112.107496,56.165035 111.760771,57.5546853 C111.414047,58.9443357 111.009536,60.7972028 110.547237,63.1132867 C110.489449,63.5765035 110.200512,63.9818182 109.796001,64.3292308 C109.391489,64.6766434 108.986978,64.8503497 108.582466,64.8503497 C107.773443,64.8503497 107.137782,64.6187413 106.675483,64.2713287 C106.213184,63.866014 105.86646,63.3448951 105.63531,62.707972 C105.461948,62.2447552 105.346373,61.7236364 105.346373,61.2025175 C105.230799,60.3918881 105.288586,59.4654545 105.404161,58.539021 C105.519736,57.5546853 105.693098,56.6861538 105.808672,55.8755245 C105.982035,54.9490909 106.213184,53.7331469 106.502121,52.2276923 C106.791058,50.7222378 107.079995,49.100979 107.426719,47.3639161 C107.773443,45.6847552 108.177955,43.8897902 108.640253,42.1527273 L108.755828,41.7474126 C109.391489,40.0103497 110.084938,37.9837762 110.084938,37.9837762 Z M99.5098492,44.0055944 C100.550022,44.1793007 102.225856,44.6425175 103.150453,45.2215385 C104.075051,45.8005594 104.595138,46.5532867 104.7685,47.4797203 C104.884075,48.0587413 104.826287,48.521958 104.652925,48.8693706 C104.479563,49.2167832 104.248413,49.5641958 103.959477,49.7958042 C103.67054,50.0274126 103.323816,50.2011189 102.977091,50.3169231 C102.630367,50.4327273 102.283643,50.4906294 102.052493,50.4906294 C101.416832,50.4906294 100.665597,50.1432168 99.8565734,49.4483916 C99.0475503,48.7535664 98.2963145,47.885035 97.6606534,46.9006993 L97.5450787,46.726993 L97.3717166,46.7848951 C97.0827797,46.9006993 96.7938429,47.0744056 96.6204808,47.306014 C96.3893313,47.5955245 96.3315439,47.885035 96.3315439,48.2324476 C96.3893313,48.7535664 96.6782681,49.3325874 97.0827797,49.9116084 C97.4872913,50.4327273 98.0073776,51.0117483 98.5852513,51.5907692 C99.163125,52.1697902 99.7987861,52.6909091 100.434447,53.2699301 C101.070108,53.848951 101.705769,54.427972 102.283643,54.9490909 C102.861517,55.4702098 103.323816,55.9913287 103.728327,56.5124476 C104.132839,56.9756643 104.306201,57.380979 104.363988,57.7862937 C104.479563,58.5969231 104.363988,59.4075524 104.075051,60.2181818 C103.786115,61.0288112 103.266028,61.7815385 102.57258,62.4184615 C101.879131,63.0553846 100.896746,63.6344056 99.7987861,64.0397203 C98.6430387,64.445035 97.3139292,64.7345455 95.8114576,64.7924476 C95.0024344,64.8503497 94.1356239,64.7924476 93.2688134,64.6766434 C91.1884681,64.445035 89.5126344,63.7502098 88.356887,62.5921678 C87.8945881,62.128951 87.4900765,61.6078322 87.1433523,61.0867133 L86.9699902,60.7972028 L86.7388407,61.0288112 C86.3921165,61.3183217 86.0453923,61.6078322 85.7564554,61.8394406 C84.600708,62.6500699 83.3293859,63.3448951 81.8847017,63.866014 C80.4400175,64.3871329 78.9375459,64.6187413 77.3772869,64.6187413 C76.2793269,64.6187413 75.1813669,64.445035 74.256769,64.1555245 C73.2743837,63.866014 72.4075732,63.4606993 71.7141248,62.8816783 C70.962889,62.3026573 70.3850153,61.6657343 69.864929,60.913007 C69.40263,60.1602797 69.0559058,59.2917483 68.8247563,58.2495105 L68.766969,57.9020979 L68.3624574,58.1337063 C68.30467,58.1916084 68.2468826,58.1916084 68.1313079,58.2495105 C67.1489226,58.7127273 66.10875,58.8285315 65.01079,58.539021 C64.6062784,58.4232168 64.2017668,58.3074126 63.8550426,58.0179021 L63.6238931,57.9020979 L63.5083184,58.1337063 C63.0460194,58.8864336 62.5259331,59.6970629 61.8902721,60.4497902 C61.254611,61.2604196 60.5033752,61.9552448 59.6943521,62.5921678 C58.8853289,63.2290909 57.960731,63.7502098 56.9783457,64.1555245 C55.9959604,64.5608392 54.9557878,64.7345455 53.8578278,64.7345455 C52.9332299,64.7345455 52.0664194,64.5608392 51.2573962,64.2713287 C50.448373,63.9239161 49.7549246,63.5186014 49.1192635,62.9974825 C48.4836025,62.4763636 47.9635162,61.8394406 47.5590046,61.0867133 C47.5590046,61.0288112 47.5012172,60.9709091 47.5012172,60.913007 L47.2700677,60.5076923 L47.0389183,60.7972028 C46.6344067,61.2025175 46.2298951,61.6078322 45.7675962,61.9552448 C44.7852109,62.7658741 43.6294635,63.4027972 42.4737161,63.9818182 C40.2200087,64.9661538 37.908514,65.081958 36.2904677,63.9239161 C35.5392319,63.3448951 35.0769329,62.4184615 34.8457834,61.1446154 C34.7302087,60.5076923 34.7302087,59.4075524 34.8457834,57.8441958 C34.9035708,56.2229371 35.0769329,54.427972 35.3658698,52.3434965 C35.5970192,50.3169231 35.9437434,48.1166434 36.4060424,45.9163636 C36.8683413,43.7160839 37.3884277,41.5737063 38.0240887,39.7208392 C38.6597498,37.867972 39.4109856,36.2467133 40.2777961,34.914965 C41.0868193,33.6411189 42.0114172,32.9462937 43.0515898,32.7725874 C43.4561014,32.7146853 43.9184003,32.8304895 44.3806993,32.9462937 C44.8429983,33.12 45.3052972,33.2937063 45.7675962,33.5832168 C46.2876825,33.8148252 46.8077688,34.1622378 47.2122804,34.6254545 C47.616792,35.0886713 47.9057288,35.5518881 47.9635162,36.0151049 C48.0213035,36.2467133 48.0213035,36.5362238 47.9057288,36.7678322 C47.7901541,37.0573427 47.616792,37.288951 47.3278551,37.5784615 C46.7499814,38.2153846 46.2298951,39.0839161 45.6520214,40.241958 C45.0741477,41.4 44.5540614,42.6738462 43.9761877,44.0634965 C43.4561014,45.4531469 42.9360151,46.9586014 42.4159288,48.4640559 C41.9536298,49.9695105 41.5491182,51.474965 41.202394,52.8067133 C40.8556698,54.1963636 40.6245203,55.4702098 40.4511582,56.6282517 C40.2777961,57.7862937 40.2777961,58.6548252 40.3355835,59.2917483 C40.3933708,59.754965 40.566733,60.1023776 40.7978824,60.3918881 C41.0290319,60.6813986 41.4335435,60.7972028 41.9536298,60.7972028 C42.5315035,60.7972028 43.1093772,60.5655944 43.8028256,60.1023776 C44.4384867,59.6391608 45.0741477,59.1759441 45.6520214,58.539021 C45.9409583,58.2495105 46.2298951,57.96 46.5188319,57.6704895 L46.5766193,57.6125874 L46.5766193,57.4967832 C46.5188319,56.3387413 46.6921941,55.1806993 47.0389183,54.0226573 C47.5590046,52.4013986 48.252453,50.8959441 49.2348383,49.5641958 C50.2172236,48.2324476 51.3151836,47.1323077 52.6442931,46.2637762 C53.9156152,45.4531469 55.2447247,44.9899301 56.5738341,44.9899301 C57.3250699,44.9899301 58.0763057,45.2215385 58.7119668,45.6268531 L58.8275415,45.6847552 L58.9431163,45.6268531 C59.5209899,45.4531469 59.9832889,45.3952448 60.3878005,45.3952448 C61.6591226,45.3952448 62.6415079,45.7426573 63.3349563,46.4374825 C64.0284047,47.1323077 64.548491,48.0008392 64.8374279,48.9851748 C65.1263647,49.9695105 65.2419395,51.0696503 65.1841521,52.1697902 C65.1263647,53.2699301 64.8952153,54.3121678 64.4907037,55.1227972 L64.4329163,55.2965035 L64.548491,55.4123077 C64.9530026,55.8176224 65.4730889,55.9913287 65.9931753,55.9913287 C66.7444111,55.9913287 67.3800721,55.7018182 67.8423711,55.1806993 C68.0735205,54.9490909 68.2468826,54.7174825 68.4780321,54.4858741 L68.5358195,54.427972 L68.5358195,54.1384615 C68.5358195,54.0226573 68.5358195,53.9068531 68.5936069,53.7331469 C68.8247563,52.1697902 69.2870553,50.7801399 69.9805037,49.5062937 C70.3272279,48.8693706 70.8473142,48.2324476 71.4251879,47.6534266 C72.0030616,47.0744056 72.6965101,46.5532867 73.4477458,46.0900699 C74.256769,45.6268531 75.1813669,45.2794406 76.1637522,44.9899301 C77.2039248,44.7004196 78.3596722,44.5846154 79.5732069,44.5846154 C81.306828,44.5846154 82.6937249,44.932028 83.5605354,45.6268531 C84.4851333,46.3216783 85.063007,47.306014 85.2363691,48.4640559 C85.4097312,49.5641958 85.2363691,50.6064336 84.7162828,51.5328671 C84.2539838,52.5172028 83.502748,53.3278322 82.5781501,54.0805594 C81.6535522,54.8332867 80.4978049,55.4123077 79.2264827,55.8176224 C77.9551606,56.2808392 76.5682638,56.4545455 75.1235795,56.4545455 L74.8346427,56.4545455 L74.8346427,56.7440559 C74.9502174,57.9020979 75.2969417,58.8285315 75.817028,59.5233566 C76.3949017,60.2760839 77.4350743,60.6813986 78.8219712,60.7972028 C80.7867417,60.7393007 82.5781501,60.1023776 84.1384091,59.0022378 C84.7740701,58.539021 85.4097312,57.96 86.1031796,57.3230769 L86.160967,57.2651748 L86.2187544,57.0914685 C86.2187544,57.0335664 86.2187544,57.0335664 86.2187544,56.9756643 C86.3343291,56.4545455 86.5654786,55.9334266 86.8544154,55.4702098 C87.1433523,55.006993 87.5478639,54.6595804 88.0101628,54.3700699 C88.4724618,54.0805594 88.9925481,53.9647552 89.5704218,53.9068531 C89.8593586,53.9068531 90.2638702,53.9647552 90.6683818,54.0805594 C91.1306807,54.2542657 91.5351923,54.4858741 91.9974913,54.8332867 C92.2286407,55.006993 92.4597902,55.2386014 92.7487271,55.5281119 C92.9798765,55.7597203 93.0954513,56.0492308 93.1532386,56.3966434 C93.211026,56.9177622 93.211026,57.3230769 92.9798765,57.6125874 C92.8065144,57.9020979 92.5175776,58.1337063 92.2864281,58.3074126 C91.9974913,58.4811189 91.7085544,58.6548252 91.4774049,58.8285315 C91.015106,59.118042 90.9573186,59.4654545 91.015106,59.6391608 C91.0728934,60.1602797 91.4196176,60.5655944 91.9974913,60.8551049 C92.5175776,61.0867133 93.3266007,61.2604196 94.4823481,61.2604196 C95.5803081,61.2604196 96.3893313,60.913007 96.9094176,60.2760839 C97.4295039,59.6391608 97.602866,58.8864336 97.4872913,58.1337063 C97.3717166,57.4967832 96.967205,56.801958 96.2737566,56.0492308 C95.6380955,55.4123077 94.8868597,54.6595804 94.0778365,53.9647552 C93.2688134,53.2699301 92.5753649,52.5172028 91.8819165,51.7644755 C91.2462555,51.0117483 90.8417439,50.3169231 90.7261691,49.6220979 C90.6105944,48.9851748 90.6683818,48.4061538 90.8417439,47.8271329 C91.015106,47.2481119 91.3040428,46.6690909 91.7085544,46.2058741 C92.113066,45.6847552 92.6331523,45.2794406 93.2688134,44.932028 C93.9044744,44.5846154 94.6557102,44.2951049 95.4647334,44.1213986 C95.4647334,44.1213986 95.6958829,44.0634965 95.7536702,44.0634965 C97.7184408,43.7160839 98.700826,43.8897902 99.5098492,44.0055944 Z M60.0410763,53.5015385 L59.9255015,53.4436364 C59.6943521,53.2699301 59.4632026,52.9804196 59.2320531,52.6909091 C59.0009036,52.3434965 58.7697542,51.9960839 58.5386047,51.5907692 C58.3074552,51.1854545 58.1340931,50.7801399 57.960731,50.3169231 C57.7873689,49.8537063 57.6717941,49.4483916 57.6140068,48.9851748 C57.6140068,48.8693706 57.6140068,48.7535664 57.6140068,48.6377622 C57.6717941,48.521958 57.6717941,48.4061538 57.7295815,48.2903497 L57.9029436,47.7113287 L57.3828573,47.9429371 C56.6316215,48.2324476 55.9381731,48.7535664 55.302512,49.4483916 C54.666851,50.1432168 54.0889773,50.8959441 53.6266783,51.7644755 C53.1643794,52.633007 52.8176552,53.5594406 52.5865057,54.4858741 C52.3553562,55.4702098 52.2975688,56.3387413 52.4131436,57.2072727 C52.4709309,57.6125874 52.5865057,58.0758042 52.7020804,58.4811189 C52.8176552,58.8864336 52.9910173,59.2917483 53.2221667,59.6391608 C53.4533162,59.9865734 53.6844657,60.2760839 54.0311899,60.5076923 C54.3779141,60.7393007 54.7824257,60.8551049 55.2447247,60.8551049 C55.2447247,60.8551049 55.2447247,60.8551049 55.2447247,60.8551049 C55.9381731,60.7972028 56.6316215,60.5655944 57.2094952,60.1023776 C57.7873689,59.6391608 58.3074552,59.0601399 58.7119668,58.4232168 C59.1164784,57.7283916 59.4632026,56.9756643 59.6943521,56.165035 L59.6943521,56.165035 C59.9255015,55.3544056 60.0410763,54.4858741 60.0410763,53.6752448 L60.0410763,53.5015385 Z M74.8924301,54.1384615 L75.1235795,54.1963636 C75.2969417,54.1963636 75.5280911,54.2542657 75.7014532,54.2542657 C76.2793269,54.2542657 76.7994132,54.1384615 77.3772869,53.9068531 C78.0707354,53.6173427 78.7063964,53.212028 79.2264827,52.7488112 C79.7465691,52.2276923 80.1510806,51.6486713 80.4400175,51.0117483 C80.7289543,50.3169231 80.8445291,49.68 80.7289543,49.0430769 C80.671167,48.6377622 80.4978049,48.2324476 80.2666554,47.9429371 C80.0355059,47.5955245 79.6309943,47.4797203 79.110908,47.4797203 C78.5908217,47.4797203 78.1285227,47.6534266 77.6662238,48.0008392 C77.2039248,48.3482517 76.7994132,48.8114685 76.3949017,49.3904895 C75.9903901,49.9695105 75.7014532,50.6643357 75.4125164,51.4170629 C75.1235795,52.1697902 75.0080048,53.0383217 74.9502174,53.9068531 L74.8924301,54.1384615 Z"/>
    <g fill-rule="nonzero" transform="translate(110.374)">
      <path fill="#EA581D" d="M68.1890953,17.9496503 C68.1890953,17.9496503 62.9304447,18.1233566 56.2848973,19.9762238 L38.1396635,29.9353846 C52.4131436,34.6833566 64.7796405,19.5709091 68.1890953,17.9496503 Z"/>
      <path fill="#EA581D" d="M59.4054152,34.5675524 C49.812712,40.6472727 40.4511582,32.5988811 40.4511582,32.5988811 C44.0339751,33.6411189 51.3151836,29.587972 59.4054152,34.5675524 Z"/>
      <path fill="url(#b)" d="M30.1072192,44.7004196 C34.4412719,47.0165035 39.3531982,48.0008392 43.6294635,49.2167832 C43.6294635,49.2167832 44.3806993,46.2058741 42.1847793,42.6738462 C36.9261287,40.1840559 30.8006676,38.5627972 26.0621034,35.9572028 C26.0621034,35.8993007 24.1551202,40.9946853 30.1072192,44.7004196 Z"/>
      <path fill="url(#c)" d="M52.7598678,54.427972 C52.7598678,54.427972 52.7598678,54.427972 52.7598678,54.427972 C52.6442931,53.9647552 52.5287183,53.5015385 52.4131436,53.0962238 L52.4131436,53.0962238 C49.1770509,41.2841958 39.9888593,32.1356643 31.8408403,30.2248951 C38.3130256,33.5832168 41.0868193,38.3890909 42.1847793,42.6738462 L42.1847793,42.6738462 C42.1847793,42.6738462 42.1847793,42.6738462 42.1847793,42.6738462 C42.7048656,44.7004196 43.1093772,46.9006993 43.6294635,49.2167832 C43.6294635,49.2167832 43.6294635,49.2167832 43.6294635,49.2167832 L43.6294635,49.2167832 C45.5364467,56.0492308 49.6393499,63.286993 53.8000404,67.5138462 C53.9734025,63.5186014 53.8000404,58.7706294 52.7598678,54.427972 Z"/>
      <path fill="url(#d)" d="M41.664693,23.2187413 C38.4286003,26.5770629 35.712594,28.1404196 32.8810129,26.1138462 C29.760495,23.8556643 30.1072192,15.980979 23.8661833,14.5334266 C19.8788549,13.606993 16.9316991,15.980979 14.2156927,17.3127273 L14.2156927,17.3127273 C14.2156927,17.3127273 14.2156927,17.3127273 14.2156927,17.3127273 C14.2156927,17.3127273 14.2156927,17.3127273 14.2156927,17.3127273 C8.7258927,15.9230769 2.71600634,15.9230769 0.462298951,16.7916084 C0.462298951,16.7916084 6.1254611,16.4441958 11.0951748,18.1812587 C11.0951748,18.1812587 11.0951748,18.1812587 11.0951748,18.1812587 C11.0951748,18.1812587 11.0951748,18.1812587 11.0951748,18.1812587 L11.0951748,18.1812587 C11.7308359,18.5286713 12.3087096,18.7602797 12.9443706,18.933986 L12.9443706,18.933986 C15.2558654,20.092028 17.4517854,22.0027972 18.3185959,24.6662937 C18.8386823,26.3454545 19.1854065,28.0246154 19.5899181,29.7037762 C19.5899181,29.7037762 19.5899181,29.7037762 19.5899181,29.7037762 C19.5899181,29.7037762 19.5899181,29.7037762 19.5899181,29.7037762 C19.5899181,29.7037762 19.5899181,29.7037762 19.5899181,29.7037762 C21.0923896,37.867972 25.1952928,42.0948252 30.1072192,44.7004196 C26.8711265,41.5737063 26.1776781,38.7944056 26.0621034,35.9572028 C26.0621034,35.9572028 26.0621034,35.9572028 26.0621034,35.9572028 C25.8887413,32.0777622 27.8535118,28.1983217 24.1551202,22.6976224 C22.3637118,20.0341259 18.7808949,18.933986 18.7808949,18.933986 C20.2255791,18.6444755 21.7858381,18.2970629 23.808396,18.5286713 C29.1248339,19.1655944 28.662535,24.4346853 31.8986276,27.2718881 C33.3433118,28.5457343 35.5392319,29.7037762 38.3130256,29.9932867 C38.3130256,29.9932867 38.3130256,29.9932867 38.3130256,29.9932867 C41.6069056,30.3406993 45.7098088,29.4721678 50.2750109,26.1717483 C52.4709309,24.5504895 54.4934889,22.4081119 56.2848973,19.9762238 C56.2848973,19.9762238 56.2848973,19.9762238 56.2848973,19.9762238 C56.2848973,19.9762238 56.2848973,19.9762238 56.2848973,19.9762238 C61.7746973,12.7384615 65.646451,3.41622378 69.7493542,0.347412587 C54.3779141,5.84811189 47.3278551,17.2548252 41.664693,23.2187413 Z"/>
    </g>
  </g>
</svg>
