<svg xmlns="http://www.w3.org/2000/svg" width="12" height="18" viewBox="0 0 12 18">
  <path fill="#FF6E13" fill-rule="evenodd" d="M6,10.0406353 C6.74866627,10.0406353 7.35701424,10.6689852 7.35701424,11.442267 C7.35701424,11.9304676 7.11311807,12.3630798 6.74635112,12.6136435 L6.74635112,14.5158827 C6.74635112,14.9431925 6.41370749,15.2868078 6,15.2868078 C5.58629251,15.2868078 5.25364888,14.9431925 5.25364888,14.5158827 L5.25364888,12.6136435 C4.88688193,12.3630798 4.64298576,11.9304676 4.64298576,11.442267 C4.64298576,10.6689852 5.25133373,10.0406353 6,10.0406353 L6,10.0406353 Z M1.02745747,7.32744315 C0.45538021,7.32744315 0,7.80781149 0,8.39869815 L0,16.928745 C0,17.5196663 0.45538021,18 1.02745747,18 L10.9725425,18 C11.5446198,18 12,17.5196663 12,16.928745 L12,8.39869815 C12,7.80781149 11.5446198,7.32744315 10.9725425,7.32744315 L1.02745747,7.32744315 Z M6,0 C3.61482368,0 1.52179262,1.75519332 1.52179262,4.1148585 L1.52179262,5.86689812 L3.57670756,5.86689812 L3.57670756,4.1148585 C3.57670756,3.08262628 4.56396864,2.12247877 6,2.12247877 C7.43603136,2.12247877 8.42329244,3.08262628 8.42329244,4.1148585 L8.42329244,5.86689812 L10.4782074,5.86689812 L10.4782074,4.1148585 C10.4782074,1.75519332 8.38517632,0 6,0 L6,0 Z"/>
</svg>
