<svg xmlns="http://www.w3.org/2000/svg" width="14" height="12" viewBox="0 0 14 12">
  <path fill="#00A59A" fill-rule="evenodd" d="M12.4590395,0.346129874 C12.2512409,0.122948838 11.9749183,0 11.6809699,0 C11.3870215,0 11.110637,0.122948838 10.9028384,0.346129874 L5.25683998,6.41007817 L2.80939337,3.78139082 C2.60153296,3.55814337 2.32521034,3.43526095 2.03126194,3.43526095 C1.73737539,3.43526095 1.46099093,3.55814337 1.25319236,3.78139082 L0.321809482,4.78172011 C-0.107269827,5.24256238 -0.107269827,5.99234438 0.321809482,6.45312023 L4.4787704,10.9178701 C4.68663081,11.1410512 4.96295343,11.264 5.25683998,11.264 C5.55078837,11.264 5.82717284,11.1410512 6.03497141,10.9178701 L13.3904842,3.0179257 C13.5982827,2.79467824 13.7126957,2.4979006 13.7126957,2.18219243 C13.7126957,1.86648426 13.5982827,1.56970662 13.3904842,1.34645916 L12.4590395,0.346129874 Z"/>
</svg>
