<svg xmlns="http://www.w3.org/2000/svg" width="6" height="10" viewBox="0 0 6 10">
  <polygon fill="#fff" fill-rule="evenodd" points="4.754 0 6 1.375 2.379 5.008 6 8.741 4.754 10 0 5.008" transform="matrix(-1 0 0 1 6 0)"/>
</svg>
