<?xml version="1.0" encoding="UTF-8"?>
<svg width="768px" height="812px" viewBox="0 0 768 812" version="1.1" xmlns="http://www.w3.org/2000/svg" xmlns:xlink="http://www.w3.org/1999/xlink">
    <!-- Generator: Sketch 52.6 (67491) - http://www.bohemiancoding.com/sketch -->
    <title>Rectangle 2 Copy</title>
    <desc>Created with Sketch.</desc>
    <defs>
        <linearGradient x1="112.761843%" y1="60.1381144%" x2="-6.72573486%" y2="23.7332434%" id="linearGradient-1">
            <stop stop-color="#22C6DF" offset="0%"></stop>
            <stop stop-color="#219A7B" offset="99.93%"></stop>
        </linearGradient>
    </defs>
    <g id="Tablet-design" stroke="none" stroke-width="1" fill="none" fill-rule="evenodd" opacity="0.154366629">
        <g id="Home" transform="translate(0.000000, -1585.000000)" fill="url(#linearGradient-1)">
            <path d="M0,1650.2945 C140.898006,1614.73796 567.145623,1567.43241 768,1591.61093 C768,1591.61093 768,1860.07396 768,2397 L0,2397 L0,1650.2945 Z" id="Rectangle-2-Copy"></path>
        </g>
    </g>
</svg>