<svg xmlns="http://www.w3.org/2000/svg" width="157" height="41" viewBox="0 0 157 41">
  <path fill="#FFFFFF" fill-rule="evenodd" d="M156.094805,41 C156.564927,40.4591779 156.886276,39.8114136 156.97554,39.0261521 C157.314742,36.0531583 154.059592,34.1434757 151.337049,33.0801645 C139.41737,28.420539 124.986405,24.167294 114.780589,32.0229642 C113.926633,27.4030601 109.50808,24.1947934 105.000263,23.3667551 C100.492446,22.5417722 95.8834639,23.5989725 91.4232544,24.6531173 C88.9238708,19.0340673 83.1038776,15.1474813 77.0875043,15.083316 C71.0741064,15.0160952 65.1737759,18.7743505 62.5583495,24.3384016 C64.1621206,14.2827771 56.7383563,4.15382074 47.2585514,1.14721652 C37.7787466,-1.8624432 27.1563663,1.31832407 19.3100872,7.55458345 C11.4667835,13.7938983 6.06037873,22.7342682 1.94234674,32.0076867 C0.918789654,34.3115278 -0.0541846685,36.7375885 0.00234900771,39.2705915 C0.0172262909,39.8847454 0.171950036,40.4316785 0.290968302,41 L156.094805,41 Z" opacity=".677"/>
</svg>
