<svg xmlns="http://www.w3.org/2000/svg" width="208" height="52" viewBox="0 0 208 52">
  <path fill="#FFFFFF" fill-rule="evenodd" d="M207.817848,52 C208.439759,48.8831783 207.872864,45.1170188 199.560794,42.5821037 C176.332444,35.4943314 173.0124,40.2295027 155.445827,42.7069764 C158.021971,39.0731819 154.249845,34.0508034 150.274404,32.2701192 C141.290192,28.2492194 129.897274,31.6207813 124.089589,39.7749663 C127.287643,34.2206302 124.335961,25.9116032 118.635914,22.8747 C112.507706,19.6105286 104.805586,21.4236796 99.1629462,25.5344877 C97.5483714,26.7107882 96.0797064,28.0619104 94.697152,29.5079359 C94.7904385,28.9035522 94.8765492,28.2991685 94.9124286,27.6947848 C95.2449114,21.6659326 93.1734718,15.8019123 91.047017,10.1876374 C89.8821312,7.11576987 88.1790538,2.36811121 78.5298766,0.45256455 C59.6740352,-3.28862045 41.6434209,16.8258682 38.0841805,36.4059018 C37.5125014,32.5198645 31.58761,28.3416252 27.4590825,28.6288323 C22.1680612,28.9959579 10.7990628,31.850547 6.9862744,35.6991225 C2.23822858,40.4917353 -2.41892265,47.6544313 1.4177854,52 L207.817848,52 Z" opacity=".551"/>
</svg>
